[gd_scene load_steps=3 format=2]

[ext_resource path="res://Lobby.cs" type="Script" id=1]
[ext_resource path="res://FntMenuSmall.tres" type="DynamicFont" id=2]

[node name="Lobby" type="Node"]
script = ExtResource( 1 )

[node name="LobbyUI" type="Control" parent="."]
margin_right = 40.0
margin_bottom = 40.0

[node name="LblPlayersTitle" type="Label" parent="LobbyUI"]
margin_left = 126.515
margin_top = 65.2979
margin_right = 219.515
margin_bottom = 96.2979
custom_fonts/font = ExtResource( 2 )
text = "Players"

[node name="PnlPlayers" type="Panel" parent="LobbyUI"]
margin_left = 76.0
margin_top = 102.0
margin_right = 304.0
margin_bottom = 564.0

[node name="RLblPlayers" type="RichTextLabel" parent="LobbyUI/PnlPlayers"]
margin_left = 11.0
margin_top = 11.0
margin_right = 216.0
margin_bottom = 451.0
custom_fonts/normal_font = ExtResource( 2 )

[node name="BtnStart" type="Button" parent="LobbyUI"]
margin_left = 520.0
margin_top = 461.0
margin_right = 762.0
margin_bottom = 535.0
custom_fonts/font = ExtResource( 2 )
disabled = true
text = "Start"
[connection signal="pressed" from="LobbyUI/BtnStart" to="." method="_on_BtnStart_pressed"]
